digraph G {
    fontname = "Bitstream Vera Sans"
    fontsize = 8

    node [
        fontname = "Bitstream Vera Sans"
        fontsize = 8
        shape = "record"
    ]

    edge [
        fontname = "Bitstream Vera Sans"
        fontsize = 8
    ]

    Object [
        label = "{Object\<ResourceTrait\>|- std::string m_name\l- bool m_isAllocated|+ bool isAllocated()\l+ void allocate()}"
    ]

    Buffer [
        label = "{Buffer\<GLAPI\>||+ void setData()\l+ void allocate()}"
    ]

    edge [
        arrowhead = "empty"
        style = "dashed"
    ]

    Buffer -> Object

}
